{
    "name": "PHIE",
    "alias": "phie",
    "description": "",
    "keywords": [],
    "active": 1,
    "order": 0,
    "providers": [
        "ShineOS\\Core\\PHIE\\Providers\\PHIEServiceProvider"
    ],
    "aliases":{},
    "files": [
        "start.php"
    ]
}