{
    "name": "SchoolAssessment",
    "alias": "schoolassessment",
    "description": "",
    "keywords": [],
    "active": 1,
    "order": 0,
    "providers": [
        "Modules\\SchoolAssessment\\Providers\\SchoolAssessmentServiceProvider"
    ],
    "aliases":{},
    "files": [
        "start.php"
    ]
}